{
    "C_struct_name": "cmd_systemDoStuff",
    "description": "Command system to perform action X",
    "id": 250,
    "length": 6,
    "name": "CMD_EXAMPLE_DO_STUFF",
    "format": "long",
    "fields": [
        {
            "description": "Action flag (either read or write)",
            "name": "action",
            "type": "uint8_t",
	    "default":73,
	    "enum": {"0":"READ",
		     "73":"WRITE"}
        },
        {
            "description": "Mode Select",
            "name": "ModeSel",
            "type": "uint8_t",
	    "enum": {"0":"INHIBIT",
                     "1":"DEPLOY",
                     "2":"SAFE",
                     "3":"NORMAL"}
        },
	{
            "description": "A floating point parameter",
            "name": "param_example",
            "type": "float",
	    "default": 3.1415926
        }
    ]
}
